graph TD
title[Runtime logic: master<br>TODO:<br>1. Add master state-machine<br>2. Add slave runtime logic<br>3. Add slave state-machine<br>4. Review the whole logic]
title-->A0
style title fill:#FFF,stroke:#FF
linkStyle 0 stroke:#FFF,stroke-width:0;
    A0[Boot] -->|Action.INIT| B0(Init)
    B0 --> B1(Get active devices)
    B1 --> C0{Switch action}
    C0 -->|Action.RUN_START<br>timestamp = 0| D0(Run) --> |Action.RUN_STOP| C0
        D0 --> D3(Sync)
            D3 --> D4(Send timestamp<br>to active devices) --> D5
            D5{In sync?} -->|Yes<br>max error <= 20ms| D3
            D5{In sync?} -->|No| D6
            D6(Re-run at specific<br>timestamp) -->|Action.RUN_START<br>master.timestamp| D0
    C0 -->|Action.UPLOAD_START| E0(Upload) --> |Action.UPLOAD_STOP| C0
        E0 --> E1(Get timeline)
            E2[sd, flash, etc] --> E1
            E1 --> E3(Split data<br>per device)
            E3 -->|Send data<br>to active devices| E4{Buffer empty?}
            E4 -->|Yes| E0
            E4 -->|No| E4
    C0 -->|Action.INIT| B0
